{
    "comment-killChromes": "pkill -f \"(chrome)?(--headless)\"",
    "id": "backstop_default",
    "viewports": [
        {
            "label": "phone",
            "width": 320,
            "height": 480
        },
        {
            "label": "tablet",
            "width": 1024,
            "height": 768
        }
    ],
    "onBeforeScript": "chromy/onBefore.js",
    "onReadyScript": "chromy/onReady.js",
    "scenarios": [
        {
            "label": "home",
            "url": "https://cmc.suhrthing.com:9000/",
            "readySelector": ""
        },
        {
            "label": "insights-home",
            "url": "https://cmc.suhrthing.com:9000/higher-education-resources/insights/",
            "readySelector": "",
            "hideSelectors": [".youtube-player__video-iframe"]
        },
        {
            "label": "insight",
            "url": "https://cmc.suhrthing.com:9000/higher-education-resources/insights/how-small-colleges-drive-manage-rapid-growth-insights/",
            "readySelector": ""
        },
        {
            "label": "webcast-home",
            "url": "https://cmc.suhrthing.com:9000/higher-education-resources/webcasts/",
            "readySelector": ""
        },
        {
            "label": "webcast",
            "url": "https://cmc.suhrthing.com:9000/higher-education-resources/webcasts/higher-education-systems-in-the-cloud-new-frontier-or-already-here-webinar/",
            "readySelector": ""
        },
        {
            "label": "product-sheets",
            "url": "https://cmc.suhrthing.com:9000/higher-education-resources/product-sheets/",
            "readySelector": ".document-links-list li"
        },
        {
            "label": "press-releases",
            "url": "https://cmc.suhrthing.com:9000/news-and-events/press-releases/",
            "readySelector": ".press-release-list li"
        },
        {
            "label": "press-release",
            "url": "https://cmc.suhrthing.com:9000/news-and-events/press-releases/Campus-Management-helps-institutions-engage-with-their-constituents-today-and-in-the-future/",
            "readySelector": ""
        },
        {
            "label": "educause-presentation-schedule",
            "url": "https://cmc.suhrthing.com:9000/news-and-events/events/educause/presentation-schedule/",
            "readySelector": ""
        },
        {
            "label": "pt-br-cnx-crm",
            "url": "https://cmc.suhrthing.com:9000/pt-br/solucoes/CampusNexus-CRM/",
            "readySelector": ""
        },
        {
            "label": "ACCS",
            "url": "https://cmc.suhrthing.com:9000/snippets-and-examples/archive/demos/ACCS/",
            "readySelector": ""
        }


    ],
    "paths": {
        "bitmaps_reference": "backstop_data/bitmaps_reference",
        "bitmaps_test": "backstop_data/bitmaps_test",
        "engine_scripts": "backstop_data/engine_scripts",
        "html_report": "backstop_data/html_report",
        "ci_report": "backstop_data/ci_report"
    },
    "report": [
        "browser"
    ],
    "engine": "chrome",
    "engineFlags": [],
    "asyncCaptureLimit": 5,
    "asyncCompareLimit": 50,
    "debug": false,
    "debugWindow": false
}
